File "accesses.simpl", line 39, characters 2-117:
Warning: Non-exhaustive pattern-matching:
[False → ⊤]

File "accesses.simpl", line 45, characters 2-118:
Warning: Non-exhaustive pattern-matching:
[True → ⊤]

val eq_idx :: idx -> idx -> boolean
val eq_idx:
(λ{accesses.simpl:9:11}(α: ⊤) ←
(λ{accesses.simpl:9:14}(β: ⊤) ←
[False ←
 ⊔(⊓(α;[I3 → ⊤], β;[I1 → ⊤ | I2 → ⊤]),
 ⊓(α;[I2 → ⊤], β;[I1 → ⊤ | I3 → ⊤]),
 ⊓(α;[I1 → ⊤], β;[I2 → ⊤ | I3 → ⊤]))
| True ←
  ⊔(⊓(α;[I3 → ⊤], β;[I3 → ⊤]),
  ⊓(α;[I2 → ⊤], β;[I2 → ⊤]),
  ⊓(α;[I1 → ⊤], β;[I1 → ⊤]))]))

val get :: idx -> s -> t
val get:
(λ{accesses.simpl:18:8}(α: ⊤) ←
(λ{accesses.simpl:18:10}(β: ⊤) ←
⊔(⊓(α;[I3 → ⊤], β;{f3 → Eq}),
⊓(α;[I2 → ⊤], β;{f2 → Eq}), ⊓(α;[I1 → ⊤], β;{f1 → Eq}))))

val set :: idx -> t -> s -> s
val set:
(λ{accesses.simpl:24:8}(α: ⊤) ←
(λ{accesses.simpl:24:10}(β: ⊤) ←
(λ{accesses.simpl:24:12}(γ: ⊤) ←
{f1 ←
 ⊔(⊓(α;[I3 → ⊤], γ;{f1 → Eq}),
 ⊓(α;[I2 → ⊤], γ;{f1 → Eq}), ⊓(α;[I1 → ⊤], β)),
f2 ←
⊔(⊓(α;[I3 → ⊤], γ;{f2 → Eq}), ⊓(α;[I2 → ⊤], β),
⊓(α;[I1 → ⊤], γ;{f2 → Eq})),
f3 ←
⊔(⊓(α;[I3 → ⊤], β), ⊓(α;[I2 → ⊤], γ;{f3 → Eq}),
⊓(α;[I1 → ⊤], γ;{f3 → Eq}))})))

val get_set :: idx -> t -> s -> t
val get_set:
(λ{accesses.simpl:30:12}(α: ⊤) ←
(λ{accesses.simpl:30:14}(β: ⊤) ←
(λ{accesses.simpl:30:16}(γ: ⊤) ←
⊔(⊓(α;[I3 → ⊤], β), ⊓(α;[I2 → ⊤], β),
⊓(α;[I1 → ⊤], β)))))

val get_set2 :: idx -> idx -> t -> s -> t
val get_set2:
(λ{accesses.simpl:32:13}(α: ⊤) ←
(λ{accesses.simpl:32:16}(β: ⊤) ←
(λ{accesses.simpl:32:19}(γ: ⊤) ←
(λ{accesses.simpl:32:22}(δ: ⊤) ←
⊔(⊓(α;[I3 → ⊤], δ;{f3 → Eq}, β;[I1 → ⊤]),
⊓(α;[I3 → ⊤], δ;{f3 → Eq}, β;[I2 → ⊤]),
⊓(α;[I3 → ⊤], γ, β;[I3 → ⊤]),
⊓(α;[I2 → ⊤], δ;{f2 → Eq}, β;[I1 → ⊤]),
⊓(α;[I2 → ⊤], γ, β;[I2 → ⊤]),
⊓(α;[I2 → ⊤], δ;{f2 → Eq}, β;[I3 → ⊤]),
⊓(α;[I1 → ⊤], γ, β;[I1 → ⊤]),
⊓(α;[I1 → ⊤], δ;{f1 → Eq}, β;[I2 → ⊤]),
⊓(α;[I1 → ⊤], δ;{f1 → Eq}, β;[I3 → ⊤]))))))

val get_set2_this0 :: idx -> t -> s -> t
val get_set2_this0:
(λ{accesses.simpl:35:19}(α: ⊤) ←
(λ{accesses.simpl:35:21}(β: ⊤) ←
(λ{accesses.simpl:35:24}(γ: ⊤) ←
⊔(⊓(α;[I3 → ⊤], β), ⊓(α;[I2 → ⊤], β),
⊓(α;[I1 → ⊤], β)))))

val get_set2_this :: idx -> idx -> t -> s -> t
val get_set2_this:
(λ{accesses.simpl:38:18}(α: ⊤) ←
(λ{accesses.simpl:38:21}(β: ⊤) ←
(λ{accesses.simpl:38:24}(γ: ⊤) ←
(λ{accesses.simpl:38:27}(δ: ⊤) ←
⊔(⊓(γ, α;[I3 → ⊤], β;[I3 → ⊤]),
⊓(γ, α;[I2 → ⊤], β;[I2 → ⊤]),
⊓(γ, α;[I1 → ⊤], β;[I1 → ⊤]))))))

val get_set2_other :: idx -> idx -> t -> s -> t
val get_set2_other:
(λ{accesses.simpl:44:19}(α: ⊤) ←
(λ{accesses.simpl:44:22}(β: ⊤) ←
(λ{accesses.simpl:44:25}(γ: ⊤) ←
(λ{accesses.simpl:44:28}(δ: ⊤) ←
⊔(⊓(α;[I3 → ⊤], β;[I1 → ⊤], δ;{f3 → Eq}),
⊓(α;[I3 → ⊤], β;[I2 → ⊤], δ;{f3 → Eq}),
⊓(α;[I2 → ⊤], β;[I1 → ⊤], δ;{f2 → Eq}),
⊓(α;[I2 → ⊤], β;[I3 → ⊤], δ;{f2 → Eq}),
⊓(α;[I1 → ⊤], β;[I2 → ⊤], δ;{f1 → Eq}),
⊓(α;[I1 → ⊤], β;[I3 → ⊤], δ;{f1 → Eq}))))))

val random_get :: s -> t
val random_get:
(λ{accesses.simpl:50:15}(α: ⊤) ←
⊔(α;{f3 → Eq}, α;{f2 → Eq}, α;{f1 → Eq}))

val random_set :: t -> s -> s
val random_set:
(λ{accesses.simpl:52:15}(α: ⊤) ←
(λ{accesses.simpl:52:17}(β: ⊤) ←
{f1 ← ⊔(β;{f1 → Eq}, α), f2 ← ⊔(β;{f2 → Eq}, α),
f3 ← ⊔(α, β;{f3 → Eq})}))
