val run :: ∀ α β. ((β -> β) -> α) -> α
val run:
(λ{cps_native_bool.simpl:1:8}(α: ⊤) ←
α @ (λ{cps_native_bool.simpl:1:14}(β: ⊤) ← β))

val var :: ∀ α β. β -> (β -> α) -> α
val var:
(λ{cps_native_bool.simpl:3:8}(α: ⊤) ←
(λ{cps_native_bool.simpl:3:16}(β: ⊤) ← β @ α))

val lam :: ∀ α β γ. (γ -> β) -> ((γ -> β) -> α) -> α
val lam:
(λ{cps_native_bool.simpl:5:8}(α: ⊤) ←
(λ{cps_native_bool.simpl:5:16}(β: ⊤) ←
β @ (λ{cps_native_bool.simpl:6:6}(γ: ⊤) ← α @ γ)))

val app ::
∀ α β γ δ ε.
(((ε -> δ -> γ) -> β) -> α) -> ((ε -> γ) -> β) -> δ -> α
val app:
(λ{cps_native_bool.simpl:8:8}(α: ⊤) ←
(λ{cps_native_bool.simpl:8:11}(β: ⊤) ←
(λ{cps_native_bool.simpl:8:20}(γ: ⊤) ←
α @
(λ{cps_native_bool.simpl:9:7}(δ: ⊤) ←
β @ (λ{cps_native_bool.simpl:10:11}(ε: ⊤) ← δ @ ε @ γ)))))

val true_ :: ∀ α. (bool -> α) -> α
val true_: (λ{cps_native_bool.simpl:15:16}(α: ⊤) ← α @ [true ← ⊤])

val false_ :: ∀ α. (bool -> α) -> α
val false_:
(λ{cps_native_bool.simpl:16:17}(α: ⊤) ← α @ [false ← ⊤])

val k1 ::
∀ α β γ δ ε.
((ε -> ((δ -> (ε -> γ) -> γ) -> β) -> β) -> α) -> α
val k1:
(λ{cps_native_bool.simpl:5:16}(α: ⊤) ←
α @
(λ{cps_native_bool.simpl:6:6}(β: ⊤) ←
(λ{cps_native_bool.simpl:5:16}(γ: ⊤) ←
γ @
(λ{cps_native_bool.simpl:6:6}(δ: ⊤) ←
(λ{cps_native_bool.simpl:3:16}(ε: ⊤) ← ε @ β)))))

val k1TF :: ∀ α. (bool -> α) -> α
val k1TF: (λ{cps_native_bool.simpl:8:20}(α: ⊤) ← α @ [true ← ⊤])

val run_k1TF :: bool
val run_k1TF: [true ← ⊤]

val k2 ::
∀ α β γ δ ε.
((ε -> ((δ -> (δ -> γ) -> γ) -> β) -> β) -> α) -> α
val k2:
(λ{cps_native_bool.simpl:5:16}(α: ⊤) ←
α @
(λ{cps_native_bool.simpl:6:6}(β: ⊤) ←
(λ{cps_native_bool.simpl:5:16}(γ: ⊤) ←
γ @
(λ{cps_native_bool.simpl:6:6}(δ: ⊤) ←
(λ{cps_native_bool.simpl:3:16}(ε: ⊤) ← ε @ δ)))))

val k2TF :: ∀ α. (bool -> α) -> α
val k2TF: (λ{cps_native_bool.simpl:8:20}(α: ⊤) ← α @ [false ← ⊤])

val run_k2TF :: bool
val run_k2TF: [false ← ⊤]

val pair ::
∀ α β γ δ ε.
((ε -> δ) -> γ) -> ((β -> α) -> δ) -> ((ε * β) -> α) -> γ
val pair:
(λ{cps_native_bool.simpl:26:9}(α: ⊤) ←
(λ{cps_native_bool.simpl:26:12}(β: ⊤) ←
(λ{cps_native_bool.simpl:26:21}(γ: ⊤) ←
α @
(λ{cps_native_bool.simpl:27:5}(δ: ⊤) ←
β @ (λ{cps_native_bool.simpl:28:7}(ε: ⊤) ← γ @ (0 ← δ, 1 ← ε))))))

val run_pair_TF :: (bool * bool)
val run_pair_TF: (0 ← [true ← ⊤], 1 ← [false ← ⊤])

val fst :: ∀ α β γ δ. (((δ * γ) -> β) -> α) -> (δ -> β) -> α
val fst:
(λ{cps_native_bool.simpl:35:8}(α: ⊤) ←
(λ{cps_native_bool.simpl:35:16}(β: ⊤) ←
α @ (λ{cps_native_bool.simpl:36:4}(γ: ⊤) ← β @ (γ;(0 → Eq)))))

val snd :: ∀ α β γ δ. (((δ * γ) -> β) -> α) -> (γ -> β) -> α
val snd:
(λ{cps_native_bool.simpl:40:8}(α: ⊤) ←
(λ{cps_native_bool.simpl:40:16}(β: ⊤) ←
α @ (λ{cps_native_bool.simpl:41:4}(γ: ⊤) ← β @ (γ;(1 → Eq)))))

val run_fst_pair_TF :: bool
val run_fst_pair_TF: [true ← ⊤]

val run_snd_pair_TF :: bool
val run_snd_pair_TF: [false ← ⊤]
