File "fib.simpl", line 2, characters 8-65:
INFO: postfixpoint reached after 1 iterations
File "fib.simpl", line 7, characters 8-116:
INFO: postfixpoint reached after 2 iterations
val fib :: int -> int
val fib: (λ{fib.simpl:2:8}(α: ⊤) ← ⊤)

val fib_acc :: int -> (int * int) -> (int * int)
val fib_acc:
(λ{fib.simpl:7:8}(α: ⊤) ← (λ{fib.simpl:7:18}(β: ⊤) ← ⊤))

val fib2 :: int -> (int * int)
val fib2: (λ{fib.simpl:14:9}(α: ⊤) ← ⊤)
