val f1 :: ∀ α β. β -> (β -> β -> α) -> α
val f1:
(λ{hindley_milner_exponential.simpl:3:7}(α: ⊤) ←
(λ{hindley_milner_exponential.simpl:3:9}(β: ⊤) ← β @ α @ α))

val f2 ::
∀ α β γ.
γ -> (((γ -> γ -> β) -> β) -> ((γ -> γ -> β) -> β) -> α) -> α
val f2:
(λ{hindley_milner_exponential.simpl:4:7}(α: ⊤) ←
(λ{hindley_milner_exponential.simpl:3:9}(β: ⊤) ←
β @ (λ{hindley_milner_exponential.simpl:3:9}(γ: ⊤) ← γ @ α @ α) @
(λ{hindley_milner_exponential.simpl:3:9}(γ: ⊤) ← γ @ α @ α)))

val f3 ::
∀ α β γ δ ε.
ε ->
(((((((ε -> ε -> δ) -> δ) -> ((ε -> ε -> δ) -> δ) -> γ) -> γ) ->
   ((((ε -> ε -> δ) -> δ) -> ((ε -> ε -> δ) -> δ) -> γ) -> γ) -> β) ->
  β) ->
 ((((((ε -> ε -> δ) -> δ) -> ((ε -> ε -> δ) -> δ) -> γ) -> γ) ->
   ((((ε -> ε -> δ) -> δ) -> ((ε -> ε -> δ) -> δ) -> γ) -> γ) -> β) ->
  β) ->
 α) ->
α
val f3:
(λ{hindley_milner_exponential.simpl:5:7}(α: ⊤) ←
(λ{hindley_milner_exponential.simpl:3:9}(β: ⊤) ←
β @
(λ{hindley_milner_exponential.simpl:3:9}(γ: ⊤) ←
γ @
(λ{hindley_milner_exponential.simpl:3:9}(δ: ⊤) ←
δ @ (λ{hindley_milner_exponential.simpl:3:9}(ε: ⊤) ← ε @ α @ α) @
(λ{hindley_milner_exponential.simpl:3:9}(ε: ⊤) ← ε @ α @ α)) @
(λ{hindley_milner_exponential.simpl:3:9}(δ: ⊤) ←
δ @ (λ{hindley_milner_exponential.simpl:3:9}(ε: ⊤) ← ε @ α @ α) @
(λ{hindley_milner_exponential.simpl:3:9}(ε: ⊤) ← ε @ α @ α))) @
(λ{hindley_milner_exponential.simpl:3:9}(γ: ⊤) ←
γ @
(λ{hindley_milner_exponential.simpl:3:9}(δ: ⊤) ←
δ @ (λ{hindley_milner_exponential.simpl:3:9}(ε: ⊤) ← ε @ α @ α) @
(λ{hindley_milner_exponential.simpl:3:9}(ε: ⊤) ← ε @ α @ α)) @
(λ{hindley_milner_exponential.simpl:3:9}(δ: ⊤) ←
δ @ (λ{hindley_milner_exponential.simpl:3:9}(ε: ⊤) ← ε @ α @ α) @
(λ{hindley_milner_exponential.simpl:3:9}(ε: ⊤) ← ε @ α @ α)))))

val f4 ::
∀ α β γ δ ε ζ η θ ι.
ι ->
(((((((((((((((ι -> ι -> θ) -> θ) -> ((ι -> ι -> θ) -> θ) -> η) ->
            η) ->
           ((((ι -> ι -> θ) -> θ) -> ((ι -> ι -> θ) -> θ) -> η) ->
            η) ->
           ζ) ->
          ζ) ->
         ((((((ι -> ι -> θ) -> θ) -> ((ι -> ι -> θ) -> θ) -> η) ->
            η) ->
           ((((ι -> ι -> θ) -> θ) -> ((ι -> ι -> θ) -> θ) -> η) ->
            η) ->
           ζ) ->
          ζ) ->
         ε) ->
        ε) ->
       ((((((((ι -> ι -> θ) -> θ) -> ((ι -> ι -> θ) -> θ) -> η) ->
            η) ->
           ((((ι -> ι -> θ) -> θ) -> ((ι -> ι -> θ) -> θ) -> η) ->
            η) ->
           ζ) ->
          ζ) ->
         ((((((ι -> ι -> θ) -> θ) -> ((ι -> ι -> θ) -> θ) -> η) ->
            η) ->
           ((((ι -> ι -> θ) -> θ) -> ((ι -> ι -> θ) -> θ) -> η) ->
            η) ->
           ζ) ->
          ζ) ->
         ε) ->
        ε) ->
       δ) ->
      δ) ->
     ((((((((((ι -> ι -> θ) -> θ) -> ((ι -> ι -> θ) -> θ) -> η) ->
            η) ->
           ((((ι -> ι -> θ) -> θ) -> ((ι -> ι -> θ) -> θ) -> η) ->
            η) ->
           ζ) ->
          ζ) ->
         ((((((ι -> ι -> θ) -> θ) -> ((ι -> ι -> θ) -> θ) -> η) ->
            η) ->
           ((((ι -> ι -> θ) -> θ) -> ((ι -> ι -> θ) -> θ) -> η) ->
            η) ->
           ζ) ->
          ζ) ->
         ε) ->
        ε) ->
       ((((((((ι -> ι -> θ) -> θ) -> ((ι -> ι -> θ) -> θ) -> η) ->
            η) ->
           ((((ι -> ι -> θ) -> θ) -> ((ι -> ι -> θ) -> θ) -> η) ->
            η) ->
           ζ) ->
          ζ) ->
         ((((((ι -> ι -> θ) -> θ) -> ((ι -> ι -> θ) -> θ) -> η) ->
            η) ->
           ((((ι -> ι -> θ) -> θ) -> ((ι -> ι -> θ) -> θ) -> η) ->
            η) ->
           ζ) ->
          ζ) ->
         ε) ->
        ε) ->
       δ) ->
      δ) ->
     γ) ->
    γ) ->
   ((((((((((((ι -> ι -> θ) -> θ) -> ((ι -> ι -> θ) -> θ) -> η) ->
            η) ->
           ((((ι -> ι -> θ) -> θ) -> ((ι -> ι -> θ) -> θ) -> η) ->
            η) ->
           ζ) ->
          ζ) ->
         ((((((ι -> ι -> θ) -> θ) -> ((ι -> ι -> θ) -> θ) -> η) ->
            η) ->
           ((((ι -> ι -> θ) -> θ) -> ((ι -> ι -> θ) -> θ) -> η) ->
            η) ->
           ζ) ->
          ζ) ->
         ε) ->
        ε) ->
       ((((((((ι -> ι -> θ) -> θ) -> ((ι -> ι -> θ) -> θ) -> η) ->
            η) ->
           ((((ι -> ι -> θ) -> θ) -> ((ι -> ι -> θ) -> θ) -> η) ->
            η) ->
           ζ) ->
          ζ) ->
         ((((((ι -> ι -> θ) -> θ) -> ((ι -> ι -> θ) -> θ) -> η) ->
            η) ->
           ((((ι -> ι -> θ) -> θ) -> ((ι -> ι -> θ) -> θ) -> η) ->
            η) ->
           ζ) ->
          ζ) ->
         ε) ->
        ε) ->
       δ) ->
      δ) ->
     ((((((((((ι -> ι -> θ) -> θ) -> ((ι -> ι -> θ) -> θ) -> η) ->
            η) ->
           ((((ι -> ι -> θ) -> θ) -> ((ι -> ι -> θ) -> θ) -> η) ->
            η) ->
           ζ) ->
          ζ) ->
         ((((((ι -> ι -> θ) -> θ) -> ((ι -> ι -> θ) -> θ) -> η) ->
            η) ->
           ((((ι -> ι -> θ) -> θ) -> ((ι -> ι -> θ) -> θ) -> η) ->
            η) ->
           ζ) ->
          ζ) ->
         ε) ->
        ε) ->
       ((((((((ι -> ι -> θ) -> θ) -> ((ι -> ι -> θ) -> θ) -> η) ->
            η) ->
           ((((ι -> ι -> θ) -> θ) -> ((ι -> ι -> θ) -> θ) -> η) ->
            η) ->
           ζ) ->
          ζ) ->
         ((((((ι -> ι -> θ) -> θ) -> ((ι -> ι -> θ) -> θ) -> η) ->
            η) ->
           ((((ι -> ι -> θ) -> θ) -> ((ι -> ι -> θ) -> θ) -> η) ->
            η) ->
           ζ) ->
          ζ) ->
         ε) ->
        ε) ->
       δ) ->
      δ) ->
     γ) ->
    γ) ->
   β) ->
  β) ->
 ((((((((((((((ι -> ι -> θ) -> θ) -> ((ι -> ι -> θ) -> θ) -> η) ->
            η) ->
           ((((ι -> ι -> θ) -> θ) -> ((ι -> ι -> θ) -> θ) -> η) ->
            η) ->
           ζ) ->
          ζ) ->
         ((((((ι -> ι -> θ) -> θ) -> ((ι -> ι -> θ) -> θ) -> η) ->
            η) ->
           ((((ι -> ι -> θ) -> θ) -> ((ι -> ι -> θ) -> θ) -> η) ->
            η) ->
           ζ) ->
          ζ) ->
         ε) ->
        ε) ->
       ((((((((ι -> ι -> θ) -> θ) -> ((ι -> ι -> θ) -> θ) -> η) ->
            η) ->
           ((((ι -> ι -> θ) -> θ) -> ((ι -> ι -> θ) -> θ) -> η) ->
            η) ->
           ζ) ->
          ζ) ->
         ((((((ι -> ι -> θ) -> θ) -> ((ι -> ι -> θ) -> θ) -> η) ->
            η) ->
           ((((ι -> ι -> θ) -> θ) -> ((ι -> ι -> θ) -> θ) -> η) ->
            η) ->
           ζ) ->
          ζ) ->
         ε) ->
        ε) ->
       δ) ->
      δ) ->
     ((((((((((ι -> ι -> θ) -> θ) -> ((ι -> ι -> θ) -> θ) -> η) ->
            η) ->
           ((((ι -> ι -> θ) -> θ) -> ((ι -> ι -> θ) -> θ) -> η) ->
            η) ->
           ζ) ->
          ζ) ->
         ((((((ι -> ι -> θ) -> θ) -> ((ι -> ι -> θ) -> θ) -> η) ->
            η) ->
           ((((ι -> ι -> θ) -> θ) -> ((ι -> ι -> θ) -> θ) -> η) ->
            η) ->
           ζ) ->
          ζ) ->
         ε) ->
        ε) ->
       ((((((((ι -> ι -> θ) -> θ) -> ((ι -> ι -> θ) -> θ) -> η) ->
            η) ->
           ((((ι -> ι -> θ) -> θ) -> ((ι -> ι -> θ) -> θ) -> η) ->
            η) ->
           ζ) ->
          ζ) ->
         ((((((ι -> ι -> θ) -> θ) -> ((ι -> ι -> θ) -> θ) -> η) ->
            η) ->
           ((((ι -> ι -> θ) -> θ) -> ((ι -> ι -> θ) -> θ) -> η) ->
            η) ->
           ζ) ->
          ζ) ->
         ε) ->
        ε) ->
       δ) ->
      δ) ->
     γ) ->
    γ) ->
   ((((((((((((ι -> ι -> θ) -> θ) -> ((ι -> ι -> θ) -> θ) -> η) ->
            η) ->
           ((((ι -> ι -> θ) -> θ) -> ((ι -> ι -> θ) -> θ) -> η) ->
            η) ->
           ζ) ->
          ζ) ->
         ((((((ι -> ι -> θ) -> θ) -> ((ι -> ι -> θ) -> θ) -> η) ->
            η) ->
           ((((ι -> ι -> θ) -> θ) -> ((ι -> ι -> θ) -> θ) -> η) ->
            η) ->
           ζ) ->
          ζ) ->
         ε) ->
        ε) ->
       ((((((((ι -> ι -> θ) -> θ) -> ((ι -> ι -> θ) -> θ) -> η) ->
            η) ->
           ((((ι -> ι -> θ) -> θ) -> ((ι -> ι -> θ) -> θ) -> η) ->
            η) ->
           ζ) ->
          ζ) ->
         ((((((ι -> ι -> θ) -> θ) -> ((ι -> ι -> θ) -> θ) -> η) ->
            η) ->
           ((((ι -> ι -> θ) -> θ) -> ((ι -> ι -> θ) -> θ) -> η) ->
            η) ->
           ζ) ->
          ζ) ->
         ε) ->
        ε) ->
       δ) ->
      δ) ->
     ((((((((((ι -> ι -> θ) -> θ) -> ((ι -> ι -> θ) -> θ) -> η) ->
            η) ->
           ((((ι -> ι -> θ) -> θ) -> ((ι -> ι -> θ) -> θ) -> η) ->
            η) ->
           ζ) ->
          ζ) ->
         ((((((ι -> ι -> θ) -> θ) -> ((ι -> ι -> θ) -> θ) -> η) ->
            η) ->
           ((((ι -> ι -> θ) -> θ) -> ((ι -> ι -> θ) -> θ) -> η) ->
            η) ->
           ζ) ->
          ζ) ->
         ε) ->
        ε) ->
       ((((((((ι -> ι -> θ) -> θ) -> ((ι -> ι -> θ) -> θ) -> η) ->
            η) ->
           ((((ι -> ι -> θ) -> θ) -> ((ι -> ι -> θ) -> θ) -> η) ->
            η) ->
           ζ) ->
          ζ) ->
         ((((((ι -> ι -> θ) -> θ) -> ((ι -> ι -> θ) -> θ) -> η) ->
            η) ->
           ((((ι -> ι -> θ) -> θ) -> ((ι -> ι -> θ) -> θ) -> η) ->
            η) ->
           ζ) ->
          ζ) ->
         ε) ->
        ε) ->
       δ) ->
      δ) ->
     γ) ->
    γ) ->
   β) ->
  β) ->
 α) ->
α
val f4:
(λ{hindley_milner_exponential.simpl:6:7}(α: ⊤) ←
(λ{hindley_milner_exponential.simpl:3:9}(β: ⊤) ←
β @
(λ{hindley_milner_exponential.simpl:3:9}(γ: ⊤) ←
γ @
(λ{hindley_milner_exponential.simpl:3:9}(δ: ⊤) ←
δ @
(λ{hindley_milner_exponential.simpl:3:9}(ε: ⊤) ←
ε @
(λ{hindley_milner_exponential.simpl:3:9}(ζ: ⊤) ←
ζ @
(λ{hindley_milner_exponential.simpl:3:9}(η: ⊤) ←
η @
(λ{hindley_milner_exponential.simpl:3:9}(θ: ⊤) ←
θ @ (λ{hindley_milner_exponential.simpl:3:9}(ι: ⊤) ← ι @ α @ α) @
(λ{hindley_milner_exponential.simpl:3:9}(ι: ⊤) ← ι @ α @ α)) @
(λ{hindley_milner_exponential.simpl:3:9}(θ: ⊤) ←
θ @ (λ{hindley_milner_exponential.simpl:3:9}(ι: ⊤) ← ι @ α @ α) @
(λ{hindley_milner_exponential.simpl:3:9}(ι: ⊤) ← ι @ α @ α))) @
(λ{hindley_milner_exponential.simpl:3:9}(η: ⊤) ←
η @
(λ{hindley_milner_exponential.simpl:3:9}(θ: ⊤) ←
θ @ (λ{hindley_milner_exponential.simpl:3:9}(ι: ⊤) ← ι @ α @ α) @
(λ{hindley_milner_exponential.simpl:3:9}(ι: ⊤) ← ι @ α @ α)) @
(λ{hindley_milner_exponential.simpl:3:9}(θ: ⊤) ←
θ @ (λ{hindley_milner_exponential.simpl:3:9}(ι: ⊤) ← ι @ α @ α) @
(λ{hindley_milner_exponential.simpl:3:9}(ι: ⊤) ← ι @ α @ α)))) @
(λ{hindley_milner_exponential.simpl:3:9}(ζ: ⊤) ←
ζ @
(λ{hindley_milner_exponential.simpl:3:9}(η: ⊤) ←
η @
(λ{hindley_milner_exponential.simpl:3:9}(θ: ⊤) ←
θ @ (λ{hindley_milner_exponential.simpl:3:9}(ι: ⊤) ← ι @ α @ α) @
(λ{hindley_milner_exponential.simpl:3:9}(ι: ⊤) ← ι @ α @ α)) @
(λ{hindley_milner_exponential.simpl:3:9}(θ: ⊤) ←
θ @ (λ{hindley_milner_exponential.simpl:3:9}(ι: ⊤) ← ι @ α @ α) @
(λ{hindley_milner_exponential.simpl:3:9}(ι: ⊤) ← ι @ α @ α))) @
(λ{hindley_milner_exponential.simpl:3:9}(η: ⊤) ←
η @
(λ{hindley_milner_exponential.simpl:3:9}(θ: ⊤) ←
θ @ (λ{hindley_milner_exponential.simpl:3:9}(ι: ⊤) ← ι @ α @ α) @
(λ{hindley_milner_exponential.simpl:3:9}(ι: ⊤) ← ι @ α @ α)) @
(λ{hindley_milner_exponential.simpl:3:9}(θ: ⊤) ←
θ @ (λ{hindley_milner_exponential.simpl:3:9}(ι: ⊤) ← ι @ α @ α) @
(λ{hindley_milner_exponential.simpl:3:9}(ι: ⊤) ← ι @ α @ α))))) @
(λ{hindley_milner_exponential.simpl:3:9}(ε: ⊤) ←
ε @
(λ{hindley_milner_exponential.simpl:3:9}(ζ: ⊤) ←
ζ @
(λ{hindley_milner_exponential.simpl:3:9}(η: ⊤) ←
η @
(λ{hindley_milner_exponential.simpl:3:9}(θ: ⊤) ←
θ @ (λ{hindley_milner_exponential.simpl:3:9}(ι: ⊤) ← ι @ α @ α) @
(λ{hindley_milner_exponential.simpl:3:9}(ι: ⊤) ← ι @ α @ α)) @
(λ{hindley_milner_exponential.simpl:3:9}(θ: ⊤) ←
θ @ (λ{hindley_milner_exponential.simpl:3:9}(ι: ⊤) ← ι @ α @ α) @
(λ{hindley_milner_exponential.simpl:3:9}(ι: ⊤) ← ι @ α @ α))) @
(λ{hindley_milner_exponential.simpl:3:9}(η: ⊤) ←
η @
(λ{hindley_milner_exponential.simpl:3:9}(θ: ⊤) ←
θ @ (λ{hindley_milner_exponential.simpl:3:9}(ι: ⊤) ← ι @ α @ α) @
(λ{hindley_milner_exponential.simpl:3:9}(ι: ⊤) ← ι @ α @ α)) @
(λ{hindley_milner_exponential.simpl:3:9}(θ: ⊤) ←
θ @ (λ{hindley_milner_exponential.simpl:3:9}(ι: ⊤) ← ι @ α @ α) @
(λ{hindley_milner_exponential.simpl:3:9}(ι: ⊤) ← ι @ α @ α)))) @
(λ{hindley_milner_exponential.simpl:3:9}(ζ: ⊤) ←
ζ @
(λ{hindley_milner_exponential.simpl:3:9}(η: ⊤) ←
η @
(λ{hindley_milner_exponential.simpl:3:9}(θ: ⊤) ←
θ @ (λ{hindley_milner_exponential.simpl:3:9}(ι: ⊤) ← ι @ α @ α) @
(λ{hindley_milner_exponential.simpl:3:9}(ι: ⊤) ← ι @ α @ α)) @
(λ{hindley_milner_exponential.simpl:3:9}(θ: ⊤) ←
θ @ (λ{hindley_milner_exponential.simpl:3:9}(ι: ⊤) ← ι @ α @ α) @
(λ{hindley_milner_exponential.simpl:3:9}(ι: ⊤) ← ι @ α @ α))) @
(λ{hindley_milner_exponential.simpl:3:9}(η: ⊤) ←
η @
(λ{hindley_milner_exponential.simpl:3:9}(θ: ⊤) ←
θ @ (λ{hindley_milner_exponential.simpl:3:9}(ι: ⊤) ← ι @ α @ α) @
(λ{hindley_milner_exponential.simpl:3:9}(ι: ⊤) ← ι @ α @ α)) @
(λ{hindley_milner_exponential.simpl:3:9}(θ: ⊤) ←
θ @ (λ{hindley_milner_exponential.simpl:3:9}(ι: ⊤) ← ι @ α @ α) @
(λ{hindley_milner_exponential.simpl:3:9}(ι: ⊤) ← ι @ α @ α)))))) @
(λ{hindley_milner_exponential.simpl:3:9}(δ: ⊤) ←
δ @
(λ{hindley_milner_exponential.simpl:3:9}(ε: ⊤) ←
ε @
(λ{hindley_milner_exponential.simpl:3:9}(ζ: ⊤) ←
ζ @
(λ{hindley_milner_exponential.simpl:3:9}(η: ⊤) ←
η @
(λ{hindley_milner_exponential.simpl:3:9}(θ: ⊤) ←
θ @ (λ{hindley_milner_exponential.simpl:3:9}(ι: ⊤) ← ι @ α @ α) @
(λ{hindley_milner_exponential.simpl:3:9}(ι: ⊤) ← ι @ α @ α)) @
(λ{hindley_milner_exponential.simpl:3:9}(θ: ⊤) ←
θ @ (λ{hindley_milner_exponential.simpl:3:9}(ι: ⊤) ← ι @ α @ α) @
(λ{hindley_milner_exponential.simpl:3:9}(ι: ⊤) ← ι @ α @ α))) @
(λ{hindley_milner_exponential.simpl:3:9}(η: ⊤) ←
η @
(λ{hindley_milner_exponential.simpl:3:9}(θ: ⊤) ←
θ @ (λ{hindley_milner_exponential.simpl:3:9}(ι: ⊤) ← ι @ α @ α) @
(λ{hindley_milner_exponential.simpl:3:9}(ι: ⊤) ← ι @ α @ α)) @
(λ{hindley_milner_exponential.simpl:3:9}(θ: ⊤) ←
θ @ (λ{hindley_milner_exponential.simpl:3:9}(ι: ⊤) ← ι @ α @ α) @
(λ{hindley_milner_exponential.simpl:3:9}(ι: ⊤) ← ι @ α @ α)))) @
(λ{hindley_milner_exponential.simpl:3:9}(ζ: ⊤) ←
ζ @
(λ{hindley_milner_exponential.simpl:3:9}(η: ⊤) ←
η @
(λ{hindley_milner_exponential.simpl:3:9}(θ: ⊤) ←
θ @ (λ{hindley_milner_exponential.simpl:3:9}(ι: ⊤) ← ι @ α @ α) @
(λ{hindley_milner_exponential.simpl:3:9}(ι: ⊤) ← ι @ α @ α)) @
(λ{hindley_milner_exponential.simpl:3:9}(θ: ⊤) ←
θ @ (λ{hindley_milner_exponential.simpl:3:9}(ι: ⊤) ← ι @ α @ α) @
(λ{hindley_milner_exponential.simpl:3:9}(ι: ⊤) ← ι @ α @ α))) @
(λ{hindley_milner_exponential.simpl:3:9}(η: ⊤) ←
η @
(λ{hindley_milner_exponential.simpl:3:9}(θ: ⊤) ←
θ @ (λ{hindley_milner_exponential.simpl:3:9}(ι: ⊤) ← ι @ α @ α) @
(λ{hindley_milner_exponential.simpl:3:9}(ι: ⊤) ← ι @ α @ α)) @
(λ{hindley_milner_exponential.simpl:3:9}(θ: ⊤) ←
θ @ (λ{hindley_milner_exponential.simpl:3:9}(ι: ⊤) ← ι @ α @ α) @
(λ{hindley_milner_exponential.simpl:3:9}(ι: ⊤) ← ι @ α @ α))))) @
(λ{hindley_milner_exponential.simpl:3:9}(ε: ⊤) ←
ε @
(λ{hindley_milner_exponential.simpl:3:9}(ζ: ⊤) ←
ζ @
(λ{hindley_milner_exponential.simpl:3:9}(η: ⊤) ←
η @
(λ{hindley_milner_exponential.simpl:3:9}(θ: ⊤) ←
θ @ (λ{hindley_milner_exponential.simpl:3:9}(ι: ⊤) ← ι @ α @ α) @
(λ{hindley_milner_exponential.simpl:3:9}(ι: ⊤) ← ι @ α @ α)) @
(λ{hindley_milner_exponential.simpl:3:9}(θ: ⊤) ←
θ @ (λ{hindley_milner_exponential.simpl:3:9}(ι: ⊤) ← ι @ α @ α) @
(λ{hindley_milner_exponential.simpl:3:9}(ι: ⊤) ← ι @ α @ α))) @
(λ{hindley_milner_exponential.simpl:3:9}(η: ⊤) ←
η @
(λ{hindley_milner_exponential.simpl:3:9}(θ: ⊤) ←
θ @ (λ{hindley_milner_exponential.simpl:3:9}(ι: ⊤) ← ι @ α @ α) @
(λ{hindley_milner_exponential.simpl:3:9}(ι: ⊤) ← ι @ α @ α)) @
(λ{hindley_milner_exponential.simpl:3:9}(θ: ⊤) ←
θ @ (λ{hindley_milner_exponential.simpl:3:9}(ι: ⊤) ← ι @ α @ α) @
(λ{hindley_milner_exponential.simpl:3:9}(ι: ⊤) ← ι @ α @ α)))) @
(λ{hindley_milner_exponential.simpl:3:9}(ζ: ⊤) ←
ζ @
(λ{hindley_milner_exponential.simpl:3:9}(η: ⊤) ←
η @
(λ{hindley_milner_exponential.simpl:3:9}(θ: ⊤) ←
θ @ (λ{hindley_milner_exponential.simpl:3:9}(ι: ⊤) ← ι @ α @ α) @
(λ{hindley_milner_exponential.simpl:3:9}(ι: ⊤) ← ι @ α @ α)) @
(λ{hindley_milner_exponential.simpl:3:9}(θ: ⊤) ←
θ @ (λ{hindley_milner_exponential.simpl:3:9}(ι: ⊤) ← ι @ α @ α) @
(λ{hindley_milner_exponential.simpl:3:9}(ι: ⊤) ← ι @ α @ α))) @
(λ{hindley_milner_exponential.simpl:3:9}(η: ⊤) ←
η @
(λ{hindley_milner_exponential.simpl:3:9}(θ: ⊤) ←
θ @ (λ{hindley_milner_exponential.simpl:3:9}(ι: ⊤) ← ι @ α @ α) @
(λ{hindley_milner_exponential.simpl:3:9}(ι: ⊤) ← ι @ α @ α)) @
(λ{hindley_milner_exponential.simpl:3:9}(θ: ⊤) ←
θ @ (λ{hindley_milner_exponential.simpl:3:9}(ι: ⊤) ← ι @ α @ α) @
(λ{hindley_milner_exponential.simpl:3:9}(ι: ⊤) ← ι @ α @ α))))))) @
(λ{hindley_milner_exponential.simpl:3:9}(γ: ⊤) ←
γ @
(λ{hindley_milner_exponential.simpl:3:9}(δ: ⊤) ←
δ @
(λ{hindley_milner_exponential.simpl:3:9}(ε: ⊤) ←
ε @
(λ{hindley_milner_exponential.simpl:3:9}(ζ: ⊤) ←
ζ @
(λ{hindley_milner_exponential.simpl:3:9}(η: ⊤) ←
η @
(λ{hindley_milner_exponential.simpl:3:9}(θ: ⊤) ←
θ @ (λ{hindley_milner_exponential.simpl:3:9}(ι: ⊤) ← ι @ α @ α) @
(λ{hindley_milner_exponential.simpl:3:9}(ι: ⊤) ← ι @ α @ α)) @
(λ{hindley_milner_exponential.simpl:3:9}(θ: ⊤) ←
θ @ (λ{hindley_milner_exponential.simpl:3:9}(ι: ⊤) ← ι @ α @ α) @
(λ{hindley_milner_exponential.simpl:3:9}(ι: ⊤) ← ι @ α @ α))) @
(λ{hindley_milner_exponential.simpl:3:9}(η: ⊤) ←
η @
(λ{hindley_milner_exponential.simpl:3:9}(θ: ⊤) ←
θ @ (λ{hindley_milner_exponential.simpl:3:9}(ι: ⊤) ← ι @ α @ α) @
(λ{hindley_milner_exponential.simpl:3:9}(ι: ⊤) ← ι @ α @ α)) @
(λ{hindley_milner_exponential.simpl:3:9}(θ: ⊤) ←
θ @ (λ{hindley_milner_exponential.simpl:3:9}(ι: ⊤) ← ι @ α @ α) @
(λ{hindley_milner_exponential.simpl:3:9}(ι: ⊤) ← ι @ α @ α)))) @
(λ{hindley_milner_exponential.simpl:3:9}(ζ: ⊤) ←
ζ @
(λ{hindley_milner_exponential.simpl:3:9}(η: ⊤) ←
η @
(λ{hindley_milner_exponential.simpl:3:9}(θ: ⊤) ←
θ @ (λ{hindley_milner_exponential.simpl:3:9}(ι: ⊤) ← ι @ α @ α) @
(λ{hindley_milner_exponential.simpl:3:9}(ι: ⊤) ← ι @ α @ α)) @
(λ{hindley_milner_exponential.simpl:3:9}(θ: ⊤) ←
θ @ (λ{hindley_milner_exponential.simpl:3:9}(ι: ⊤) ← ι @ α @ α) @
(λ{hindley_milner_exponential.simpl:3:9}(ι: ⊤) ← ι @ α @ α))) @
(λ{hindley_milner_exponential.simpl:3:9}(η: ⊤) ←
η @
(λ{hindley_milner_exponential.simpl:3:9}(θ: ⊤) ←
θ @ (λ{hindley_milner_exponential.simpl:3:9}(ι: ⊤) ← ι @ α @ α) @
(λ{hindley_milner_exponential.simpl:3:9}(ι: ⊤) ← ι @ α @ α)) @
(λ{hindley_milner_exponential.simpl:3:9}(θ: ⊤) ←
θ @ (λ{hindley_milner_exponential.simpl:3:9}(ι: ⊤) ← ι @ α @ α) @
(λ{hindley_milner_exponential.simpl:3:9}(ι: ⊤) ← ι @ α @ α))))) @
(λ{hindley_milner_exponential.simpl:3:9}(ε: ⊤) ←
ε @
(λ{hindley_milner_exponential.simpl:3:9}(ζ: ⊤) ←
ζ @
(λ{hindley_milner_exponential.simpl:3:9}(η: ⊤) ←
η @
(λ{hindley_milner_exponential.simpl:3:9}(θ: ⊤) ←
θ @ (λ{hindley_milner_exponential.simpl:3:9}(ι: ⊤) ← ι @ α @ α) @
(λ{hindley_milner_exponential.simpl:3:9}(ι: ⊤) ← ι @ α @ α)) @
(λ{hindley_milner_exponential.simpl:3:9}(θ: ⊤) ←
θ @ (λ{hindley_milner_exponential.simpl:3:9}(ι: ⊤) ← ι @ α @ α) @
(λ{hindley_milner_exponential.simpl:3:9}(ι: ⊤) ← ι @ α @ α))) @
(λ{hindley_milner_exponential.simpl:3:9}(η: ⊤) ←
η @
(λ{hindley_milner_exponential.simpl:3:9}(θ: ⊤) ←
θ @ (λ{hindley_milner_exponential.simpl:3:9}(ι: ⊤) ← ι @ α @ α) @
(λ{hindley_milner_exponential.simpl:3:9}(ι: ⊤) ← ι @ α @ α)) @
(λ{hindley_milner_exponential.simpl:3:9}(θ: ⊤) ←
θ @ (λ{hindley_milner_exponential.simpl:3:9}(ι: ⊤) ← ι @ α @ α) @
(λ{hindley_milner_exponential.simpl:3:9}(ι: ⊤) ← ι @ α @ α)))) @
(λ{hindley_milner_exponential.simpl:3:9}(ζ: ⊤) ←
ζ @
(λ{hindley_milner_exponential.simpl:3:9}(η: ⊤) ←
η @
(λ{hindley_milner_exponential.simpl:3:9}(θ: ⊤) ←
θ @ (λ{hindley_milner_exponential.simpl:3:9}(ι: ⊤) ← ι @ α @ α) @
(λ{hindley_milner_exponential.simpl:3:9}(ι: ⊤) ← ι @ α @ α)) @
(λ{hindley_milner_exponential.simpl:3:9}(θ: ⊤) ←
θ @ (λ{hindley_milner_exponential.simpl:3:9}(ι: ⊤) ← ι @ α @ α) @
(λ{hindley_milner_exponential.simpl:3:9}(ι: ⊤) ← ι @ α @ α))) @
(λ{hindley_milner_exponential.simpl:3:9}(η: ⊤) ←
η @
(λ{hindley_milner_exponential.simpl:3:9}(θ: ⊤) ←
θ @ (λ{hindley_milner_exponential.simpl:3:9}(ι: ⊤) ← ι @ α @ α) @
(λ{hindley_milner_exponential.simpl:3:9}(ι: ⊤) ← ι @ α @ α)) @
(λ{hindley_milner_exponential.simpl:3:9}(θ: ⊤) ←
θ @ (λ{hindley_milner_exponential.simpl:3:9}(ι: ⊤) ← ι @ α @ α) @
(λ{hindley_milner_exponential.simpl:3:9}(ι: ⊤) ← ι @ α @ α)))))) @
(λ{hindley_milner_exponential.simpl:3:9}(δ: ⊤) ←
δ @
(λ{hindley_milner_exponential.simpl:3:9}(ε: ⊤) ←
ε @
(λ{hindley_milner_exponential.simpl:3:9}(ζ: ⊤) ←
ζ @
(λ{hindley_milner_exponential.simpl:3:9}(η: ⊤) ←
η @
(λ{hindley_milner_exponential.simpl:3:9}(θ: ⊤) ←
θ @ (λ{hindley_milner_exponential.simpl:3:9}(ι: ⊤) ← ι @ α @ α) @
(λ{hindley_milner_exponential.simpl:3:9}(ι: ⊤) ← ι @ α @ α)) @
(λ{hindley_milner_exponential.simpl:3:9}(θ: ⊤) ←
θ @ (λ{hindley_milner_exponential.simpl:3:9}(ι: ⊤) ← ι @ α @ α) @
(λ{hindley_milner_exponential.simpl:3:9}(ι: ⊤) ← ι @ α @ α))) @
(λ{hindley_milner_exponential.simpl:3:9}(η: ⊤) ←
η @
(λ{hindley_milner_exponential.simpl:3:9}(θ: ⊤) ←
θ @ (λ{hindley_milner_exponential.simpl:3:9}(ι: ⊤) ← ι @ α @ α) @
(λ{hindley_milner_exponential.simpl:3:9}(ι: ⊤) ← ι @ α @ α)) @
(λ{hindley_milner_exponential.simpl:3:9}(θ: ⊤) ←
θ @ (λ{hindley_milner_exponential.simpl:3:9}(ι: ⊤) ← ι @ α @ α) @
(λ{hindley_milner_exponential.simpl:3:9}(ι: ⊤) ← ι @ α @ α)))) @
(λ{hindley_milner_exponential.simpl:3:9}(ζ: ⊤) ←
ζ @
(λ{hindley_milner_exponential.simpl:3:9}(η: ⊤) ←
η @
(λ{hindley_milner_exponential.simpl:3:9}(θ: ⊤) ←
θ @ (λ{hindley_milner_exponential.simpl:3:9}(ι: ⊤) ← ι @ α @ α) @
(λ{hindley_milner_exponential.simpl:3:9}(ι: ⊤) ← ι @ α @ α)) @
(λ{hindley_milner_exponential.simpl:3:9}(θ: ⊤) ←
θ @ (λ{hindley_milner_exponential.simpl:3:9}(ι: ⊤) ← ι @ α @ α) @
(λ{hindley_milner_exponential.simpl:3:9}(ι: ⊤) ← ι @ α @ α))) @
(λ{hindley_milner_exponential.simpl:3:9}(η: ⊤) ←
η @
(λ{hindley_milner_exponential.simpl:3:9}(θ: ⊤) ←
θ @ (λ{hindley_milner_exponential.simpl:3:9}(ι: ⊤) ← ι @ α @ α) @
(λ{hindley_milner_exponential.simpl:3:9}(ι: ⊤) ← ι @ α @ α)) @
(λ{hindley_milner_exponential.simpl:3:9}(θ: ⊤) ←
θ @ (λ{hindley_milner_exponential.simpl:3:9}(ι: ⊤) ← ι @ α @ α) @
(λ{hindley_milner_exponential.simpl:3:9}(ι: ⊤) ← ι @ α @ α))))) @
(λ{hindley_milner_exponential.simpl:3:9}(ε: ⊤) ←
ε @
(λ{hindley_milner_exponential.simpl:3:9}(ζ: ⊤) ←
ζ @
(λ{hindley_milner_exponential.simpl:3:9}(η: ⊤) ←
η @
(λ{hindley_milner_exponential.simpl:3:9}(θ: ⊤) ←
θ @ (λ{hindley_milner_exponential.simpl:3:9}(ι: ⊤) ← ι @ α @ α) @
(λ{hindley_milner_exponential.simpl:3:9}(ι: ⊤) ← ι @ α @ α)) @
(λ{hindley_milner_exponential.simpl:3:9}(θ: ⊤) ←
θ @ (λ{hindley_milner_exponential.simpl:3:9}(ι: ⊤) ← ι @ α @ α) @
(λ{hindley_milner_exponential.simpl:3:9}(ι: ⊤) ← ι @ α @ α))) @
(λ{hindley_milner_exponential.simpl:3:9}(η: ⊤) ←
η @
(λ{hindley_milner_exponential.simpl:3:9}(θ: ⊤) ←
θ @ (λ{hindley_milner_exponential.simpl:3:9}(ι: ⊤) ← ι @ α @ α) @
(λ{hindley_milner_exponential.simpl:3:9}(ι: ⊤) ← ι @ α @ α)) @
(λ{hindley_milner_exponential.simpl:3:9}(θ: ⊤) ←
θ @ (λ{hindley_milner_exponential.simpl:3:9}(ι: ⊤) ← ι @ α @ α) @
(λ{hindley_milner_exponential.simpl:3:9}(ι: ⊤) ← ι @ α @ α)))) @
(λ{hindley_milner_exponential.simpl:3:9}(ζ: ⊤) ←
ζ @
(λ{hindley_milner_exponential.simpl:3:9}(η: ⊤) ←
η @
(λ{hindley_milner_exponential.simpl:3:9}(θ: ⊤) ←
θ @ (λ{hindley_milner_exponential.simpl:3:9}(ι: ⊤) ← ι @ α @ α) @
(λ{hindley_milner_exponential.simpl:3:9}(ι: ⊤) ← ι @ α @ α)) @
(λ{hindley_milner_exponential.simpl:3:9}(θ: ⊤) ←
θ @ (λ{hindley_milner_exponential.simpl:3:9}(ι: ⊤) ← ι @ α @ α) @
(λ{hindley_milner_exponential.simpl:3:9}(ι: ⊤) ← ι @ α @ α))) @
(λ{hindley_milner_exponential.simpl:3:9}(η: ⊤) ←
η @
(λ{hindley_milner_exponential.simpl:3:9}(θ: ⊤) ←
θ @ (λ{hindley_milner_exponential.simpl:3:9}(ι: ⊤) ← ι @ α @ α) @
(λ{hindley_milner_exponential.simpl:3:9}(ι: ⊤) ← ι @ α @ α)) @
(λ{hindley_milner_exponential.simpl:3:9}(θ: ⊤) ←
θ @ (λ{hindley_milner_exponential.simpl:3:9}(ι: ⊤) ← ι @ α @ α) @
(λ{hindley_milner_exponential.simpl:3:9}(ι: ⊤) ← ι @ α @ α)))))))))

val k :: ∀ α β. β -> α -> α
val k:
(λ{hindley_milner_exponential.simpl:8:6}(α: ⊤) ←
(λ{hindley_milner_exponential.simpl:8:8}(β: ⊤) ← β))

val final :: ∀ α. α -> α
val final: (λ{hindley_milner_exponential.simpl:9:10}(α: ⊤) ← α)

val result :: int
val result: ⊤
