File "shivers.simpl", line 7, characters 8-40:
INFO: postfixpoint reached after 0 iterations
val loop :: ∀ α β. (β -> int) -> α
val loop: (λ{shivers.simpl:7:8}(α: ⊤) ← ⊥)

val result :: ∀ α. α
val result: ⊥
