File "tak.simpl", line 13, characters 8-105:
INFO: postfixpoint reached after 2 iterations
File "tak.simpl", line 18, characters 8-95:
INFO: postfixpoint reached after 2 iterations
File "tak.simpl", line 23, characters 8-125:
INFO: postfixpoint reached after 1 iterations
File "tak.simpl", line 29, characters 8-95:
INFO: postfixpoint reached after 2 iterations
File "tak.simpl", line 41, characters 8-119:
INFO: postfixpoint reached after 2 iterations
val tak :: int -> int -> int -> int
val tak:
(λ{tak.simpl:13:8}(α: ⊤) ←
(λ{tak.simpl:13:14}(β: ⊤) ← (λ{tak.simpl:13:16}(γ: ⊤) ← ⊤)))

val g :: int -> int -> int -> int
val g:
(λ{tak.simpl:18:8}(α: ⊤) ←
(λ{tak.simpl:18:12}(β: ⊤) ← (λ{tak.simpl:18:14}(γ: ⊤) ← ⊤)))

val b :: int -> int -> int -> int
val b:
(λ{tak.simpl:23:8}(α: ⊤) ←
(λ{tak.simpl:23:12}(β: ⊤) ← (λ{tak.simpl:23:14}(γ: ⊤) ← ⊤)))

val k :: int -> int -> int -> int
val k:
(λ{tak.simpl:29:8}(α: ⊤) ←
(λ{tak.simpl:29:12}(β: ⊤) ← (λ{tak.simpl:29:14}(γ: ⊤) ← ⊤)))

val t :: int -> int -> int -> int -> int
val t:
(λ{tak.simpl:41:8}(α: ⊤) ←
(λ{tak.simpl:41:12}(β: ⊤) ←
(λ{tak.simpl:41:14}(γ: ⊤) ← (λ{tak.simpl:41:16}(δ: ⊤) ← ⊤))))
